Lab3/src/AudDSP_waveform.vcd
$date
	Sat Nov 02 23:26:31 2024
$end
$version
	Icarus Verilog
$end
$timescale
	1s
$end
$scope module AudDSP_tb $end
$var wire 1 ! i_daclrck $end
$var wire 20 " o_sram_addr [19:0] $end
$var wire 1 # o_player_en $end
$var wire 16 $ o_dac_data [15:0] $end
$var parameter 64 % SRAM_SIZE $end
$var reg 1 & clk $end
$var reg 1 ' i_daclrck_driver $end
$var reg 1 ( i_pause $end
$var reg 1 ) i_player_ack $end
$var reg 1 * i_rst_n $end
$var reg 1 + i_slow_0 $end
$var reg 1 , i_slow_1 $end
$var reg 8 - i_speed [7:0] $end
$var reg 16 . i_sram_data [15:0] $end
$var reg 1 / i_start $end
$var reg 1 0 i_stop $end
$scope module dut $end
$var wire 1 & i_clk $end
$var wire 1 ! i_daclrck $end
$var wire 1 1 i_fast $end
$var wire 1 ( i_pause $end
$var wire 1 ) i_player_ack $end
$var wire 1 * i_rst_n $end
$var wire 1 + i_slow_0 $end
$var wire 1 , i_slow_1 $end
$var wire 8 2 i_speed [7:0] $end
$var wire 16 3 i_sram_data [15:0] $end
$var wire 1 / i_start $end
$var wire 1 0 i_stop $end
$var wire 16 4 o_dac_data [15:0] $end
$var wire 1 # o_player_en $end
$var wire 20 5 o_sram_addr [19:0] $end
$var parameter 21 6 END_ADDR $end
$var parameter 20 7 START_ADDR $end
$var parameter 8 8 x0_125 $end
$var parameter 8 9 x0_14 $end
$var parameter 8 : x0_17 $end
$var parameter 8 ; x0_2 $end
$var parameter 8 < x0_25 $end
$var parameter 8 = x0_33 $end
$var parameter 8 > x0_5 $end
$var parameter 8 ? x1 $end
$var parameter 8 @ x2 $end
$var parameter 8 A x3 $end
$var parameter 8 B x4 $end
$var parameter 8 C x5 $end
$var parameter 8 D x6 $end
$var parameter 8 E x7 $end
$var parameter 8 F x8 $end
$var reg 6 G cnt [5:0] $end
$var reg 6 H cnt_nxt [5:0] $end
$var reg 1 I daclrck_prev $end
$var reg 1 J daclrck_prev2 $end
$var reg 3 K fall_cnt [2:0] $end
$var reg 3 L fall_cnt_nxt [2:0] $end
$var reg 1 M o_player_en_r $end
$var reg 1 N o_player_en_w $end
$var reg 16 O o_processed_data_r [15:0] $end
$var reg 16 P o_processed_data_w [15:0] $end
$var reg 20 Q o_sram_addr_r [19:0] $end
$var reg 20 R o_sram_addr_w [19:0] $end
$var reg 16 S old_data_r [15:0] $end
$var reg 16 T old_data_w [15:0] $end
$var reg 8 U speed_r [7:0] $end
$var reg 8 V speed_w [7:0] $end
$var reg 3 W state_r [2:0] $end
$var reg 3 X state_w [2:0] $end
$var reg 20 Y temp_data1 [19:0] $end
$var reg 20 Z temp_data2 [19:0] $end
$var reg 40 [ temp_data3 [39:0] $end
$var reg 1 \ transmission_en_r $end
$var reg 1 ] transmission_en_w $end
$upscope $end
$scope begin $unm_blk_100 $end
$var integer 32 ^ i [31:0] $end
$upscope $end
$upscope $end
$enddefinitions $end
$comment Show the parameter values. $end
$dumpall
b1000000 F
b111000 E
b110000 D
b101000 C
b100000 B
b11000 A
b10000 @
b1000 ?
b1 >
b10 =
b11 <
b100 ;
b101 :
b110 9
b111 8
b0 7
b100000000000000000000 6
b100000000000000000000 %
$end
#0
$dumpvars
b100000000000000000000 ^
0]
0\
b0 [
b0 Z
b0 Y
b0 X
b0 W
b10 V
b1000 U
b0 T
b0 S
b0 R
b0 Q
b0 P
b0 O
0N
0M
b0 L
b0 K
0J
0I
b0 H
b0 G
b0 5
b0 4
bx 3
b10 2
z1
00
0/
bx .
b10 -
1,
0+
0*
0)
0(
0'
0&
b0 $
0#
b0 "
0!
$end
#5
b10 V
b1010010110100101 .
b1010010110100101 3
1&
#10
0&
#15
1&
#20
0&
#25
1&
#30
0&
#35
1&
#40
0&
#45
1&
#50
0&
1*
#55
b10 U
1&
#60
0&
#65
1&
#70
0&
#75
1&
#80
0&
#85
1&
#90
0&
#95
1&
#100
b1 X
0&
1/
#105
b1010010110100101 T
b1010010110100101 P
b1 R
b1 H
b1 W
1&
#110
0&
#115
b1 H
b1 R
b1010010110100101 S
b1010010110100101 $
b1010010110100101 4
b1010010110100101 O
1&
#120
0&
#125
1&
#130
0&
#135
1&
#140
0&
#145
1&
#150
0&
#155
1&
#160
0&
#165
1&
#170
0&
#175
1&
#180
0&
#185
1&
#190
0&
#195
1&
#200
b1 H
b1 R
0&
0/
#205
1&
#210
0&
#215
1&
#220
0&
#225
1&
#230
0&
#235
1&
#240
0&
#245
1&
#250
0&
#255
1&
#260
0&
#265
1&
#270
0&
#275
1&
#280
0&
#285
1&
#290
0&
#295
b1010010110100100 P
b11111010010110100100 Z
b1111111101001011010010011010010110100101 [
b11101111000011101111 Y
b1 G
b1 "
b1 5
b1 Q
1I
b10 H
b1 R
1!
1'
1&
#300
0&
#305
b10 H
b1111111101001011010010001111101011111010 [
b11111010010110100100 Z
b11101111000011101110 Y
1J
b1010010110100100 $
b1010010110100100 4
b1010010110100100 O
b1010010110100100 .
b1010010110100100 3
1&
